^C:\USERS\USER\DESKTOP\VISUAL STUDIO PROJECTS\CELL\CELL\DEBUG\AMINOACID.OBJ|C:\USERS\USER\DESKTOP\VISUAL STUDIO PROJECTS\CELL\CELL\DEBUG\CELL.OBJ|C:\USERS\USER\DESKTOP\VISUAL STUDIO PROJECTS\CELL\CELL\DEBUG\MITOCHONDRION.OBJ|C:\USERS\USER\DESKTOP\VISUAL STUDIO PROJECTS\CELL\CELL\DEBUG\NUCLEUS.OBJ|C:\USERS\USER\DESKTOP\VISUAL STUDIO PROJECTS\CELL\CELL\DEBUG\PROTEIN.OBJ|C:\USERS\USER\DESKTOP\VISUAL STUDIO PROJECTS\CELL\CELL\DEBUG\RIBOSOM.OBJ|C:\USERS\USER\DESKTOP\VISUAL STUDIO PROJECTS\CELL\CELL\DEBUG\TESTER.OBJ|C:\USERS\USER\DESKTOP\VISUAL STUDIO PROJECTS\CELL\CELL\DEBUG\VIRUS.OBJ
C:\USERS\USER\DESKTOP\VISUAL STUDIO PROJECTS\CELL\DEBUG\CELL.EXE
C:\USERS\USER\DESKTOP\VISUAL STUDIO PROJECTS\CELL\DEBUG\CELL.ILK
C:\USERS\USER\DESKTOP\VISUAL STUDIO PROJECTS\CELL\DEBUG\CELL.PDB
