^C:\USERS\USER\DESKTOP\VISUAL STUDIO PROJECTS\CELL\CELL\DEBUG\AMINOACID.OBJ|C:\USERS\USER\DESKTOP\VISUAL STUDIO PROJECTS\CELL\CELL\DEBUG\CELL.OBJ|C:\USERS\USER\DESKTOP\VISUAL STUDIO PROJECTS\CELL\CELL\DEBUG\MITOCHONDRION.OBJ|C:\USERS\USER\DESKTOP\VISUAL STUDIO PROJECTS\CELL\CELL\DEBUG\NUCLEUS.OBJ|C:\USERS\USER\DESKTOP\VISUAL STUDIO PROJECTS\CELL\CELL\DEBUG\PROTEIN.OBJ|C:\USERS\USER\DESKTOP\VISUAL STUDIO PROJECTS\CELL\CELL\DEBUG\RIBOSOM.OBJ|C:\USERS\USER\DESKTOP\VISUAL STUDIO PROJECTS\CELL\CELL\DEBUG\TESTER.OBJ|C:\USERS\USER\DESKTOP\VISUAL STUDIO PROJECTS\CELL\CELL\DEBUG\VIRUS.OBJ
C:\PROGRAM FILES (X86)\WINDOWS KITS\10\LIB\10.0.16299.0\UM\X86\KERNEL32.LIB
C:\PROGRAM FILES (X86)\WINDOWS KITS\10\LIB\10.0.16299.0\UM\X86\USER32.LIB
C:\PROGRAM FILES (X86)\WINDOWS KITS\10\LIB\10.0.16299.0\UM\X86\GDI32.LIB
C:\PROGRAM FILES (X86)\WINDOWS KITS\10\LIB\10.0.16299.0\UM\X86\WINSPOOL.LIB
C:\PROGRAM FILES (X86)\WINDOWS KITS\10\LIB\10.0.16299.0\UM\X86\COMDLG32.LIB
C:\PROGRAM FILES (X86)\WINDOWS KITS\10\LIB\10.0.16299.0\UM\X86\ADVAPI32.LIB
C:\PROGRAM FILES (X86)\WINDOWS KITS\10\LIB\10.0.16299.0\UM\X86\SHELL32.LIB
C:\PROGRAM FILES (X86)\WINDOWS KITS\10\LIB\10.0.16299.0\UM\X86\OLE32.LIB
C:\PROGRAM FILES (X86)\WINDOWS KITS\10\LIB\10.0.16299.0\UM\X86\OLEAUT32.LIB
C:\PROGRAM FILES (X86)\WINDOWS KITS\10\LIB\10.0.16299.0\UM\X86\UUID.LIB
C:\PROGRAM FILES (X86)\WINDOWS KITS\10\LIB\10.0.16299.0\UM\X86\ODBC32.LIB
C:\PROGRAM FILES (X86)\WINDOWS KITS\10\LIB\10.0.16299.0\UM\X86\ODBCCP32.LIB
C:\USERS\USER\DESKTOP\VISUAL STUDIO PROJECTS\CELL\CELL\DEBUG\AMINOACID.OBJ
C:\USERS\USER\DESKTOP\VISUAL STUDIO PROJECTS\CELL\CELL\DEBUG\CELL.OBJ
C:\USERS\USER\DESKTOP\VISUAL STUDIO PROJECTS\CELL\CELL\DEBUG\MITOCHONDRION.OBJ
C:\USERS\USER\DESKTOP\VISUAL STUDIO PROJECTS\CELL\CELL\DEBUG\NUCLEUS.OBJ
C:\USERS\USER\DESKTOP\VISUAL STUDIO PROJECTS\CELL\CELL\DEBUG\PROTEIN.OBJ
C:\USERS\USER\DESKTOP\VISUAL STUDIO PROJECTS\CELL\CELL\DEBUG\RIBOSOM.OBJ
C:\USERS\USER\DESKTOP\VISUAL STUDIO PROJECTS\CELL\CELL\DEBUG\TESTER.OBJ
C:\USERS\USER\DESKTOP\VISUAL STUDIO PROJECTS\CELL\CELL\DEBUG\VIRUS.OBJ
C:\WINDOWS\SYSTEM32\TZRES.DLL
C:\WINDOWS\GLOBALIZATION\SORTING\SORTDEFAULT.NLS
C:\PROGRAM FILES (X86)\MICROSOFT VISUAL STUDIO\2017\COMMUNITY\VC\TOOLS\MSVC\14.13.26128\LIB\X86\MSVCPRTD.LIB
C:\PROGRAM FILES (X86)\MICROSOFT VISUAL STUDIO\2017\COMMUNITY\VC\TOOLS\MSVC\14.13.26128\LIB\X86\MSVCRTD.LIB
C:\PROGRAM FILES (X86)\MICROSOFT VISUAL STUDIO\2017\COMMUNITY\VC\TOOLS\MSVC\14.13.26128\LIB\X86\OLDNAMES.LIB
C:\PROGRAM FILES (X86)\MICROSOFT VISUAL STUDIO\2017\COMMUNITY\VC\TOOLS\MSVC\14.13.26128\LIB\X86\VCRUNTIMED.LIB
C:\PROGRAM FILES (X86)\WINDOWS KITS\10\LIB\10.0.16299.0\UCRT\X86\UCRTD.LIB
C:\PROGRAM FILES (X86)\MICROSOFT VISUAL STUDIO\2017\COMMUNITY\VC\TOOLS\MSVC\14.13.26128\BIN\HOSTX86\X86\LINK.EXE
C:\PROGRAM FILES (X86)\WINDOWS KITS\10\BIN\10.0.16299.0\X86\RC.EXE
C:\PROGRAM FILES (X86)\MICROSOFT VISUAL STUDIO\2017\COMMUNITY\VC\TOOLS\MSVC\14.13.26128\BIN\HOSTX86\X86\CVTRES.EXE
C:\PROGRAM FILES (X86)\MICROSOFT VISUAL STUDIO\2017\COMMUNITY\VC\TOOLS\MSVC\14.13.26128\BIN\HOSTX86\X86\MSPDBSRV.EXE
C:\PROGRAM FILES (X86)\MICROSOFT VISUAL STUDIO\2017\COMMUNITY\VC\TOOLS\MSVC\14.13.26128\BIN\HOSTX86\X86\VCTIP.EXE
